{"href":"https://api.spotify.com/v1/users/diederikdijkstra.nl/playlists?offset=0&limit=20","items":[{"collaborative":false,"description":"Elke week verse versjes - https:&#x2F;&#x2F;diederikdijkstra.nl","external_urls":{"spotify":"https://open.spotify.com/playlist/4jnMHpa26koF4hANQhPXfb"},"href":"https://api.spotify.com/v1/playlists/4jnMHpa26koF4hANQhPXfb","id":"4jnMHpa26koF4hANQhPXfb","images":[{"height":null,"url":"https://i.scdn.co/image/ab67706c0000bebb8c9ab8a7bc8180ad86dff734","width":null}],"name":"Fijne deuntjes","owner":{"display_name":"diederikdijkstra.nl","external_urls":{"spotify":"https://open.spotify.com/user/diederikdijkstra.nl"},"href":"https://api.spotify.com/v1/users/diederikdijkstra.nl","id":"diederikdijkstra.nl","type":"user","uri":"spotify:user:diederikdijkstra.nl"},"primary_color":null,"public":true,"snapshot_id":"MjE2LDVkYWY1ZjI4NTI2ZWY4ZDc3ZDgxOWM1YmQ4YWQ5YzdjODgzM2ZiMzc=","tracks":{"href":"https://api.spotify.com/v1/playlists/4jnMHpa26koF4hANQhPXfb/tracks","total":25},"type":"playlist","uri":"spotify:playlist:4jnMHpa26koF4hANQhPXfb"},{"collaborative":false,"description":"Yo Yo Yo, een lekker lijstje met van alles wat! Voornamelijk vrolijke tunes, maar af en toe ook een tranentrekker. Soms tegen het foute aan, maar dan kun je ze wel lekker meezingen. Tip: deze lijst doet het heel erg goed in de auto!","external_urls":{"spotify":"https://open.spotify.com/playlist/0PaeOHUB8lHzVI9wUuxLAe"},"href":"https://api.spotify.com/v1/playlists/0PaeOHUB8lHzVI9wUuxLAe","id":"0PaeOHUB8lHzVI9wUuxLAe","images":[{"height":null,"url":"https://i.scdn.co/image/ab67706c0000bebbc78d32f222e7ce984c8bb9f6","width":null}],"name":"Gewoon een lekker lijstje","owner":{"display_name":"diederikdijkstra.nl","external_urls":{"spotify":"https://open.spotify.com/user/diederikdijkstra.nl"},"href":"https://api.spotify.com/v1/users/diederikdijkstra.nl","id":"diederikdijkstra.nl","type":"user","uri":"spotify:user:diederikdijkstra.nl"},"primary_color":null,"public":true,"snapshot_id":"MzkwLDg2MGNiNTEzYjIwYWM0YjMyMmI0ZGM4YzJhZDdhODk3ZjI3MzZjYmY=","tracks":{"href":"https://api.spotify.com/v1/playlists/0PaeOHUB8lHzVI9wUuxLAe/tracks","total":417},"type":"playlist","uri":"spotify:playlist:0PaeOHUB8lHzVI9wUuxLAe"},{"collaborative":false,"description":"Je gaat extra lekker op deze lijst als je: - ligt op het (liefst tropisch) strand, - heerlijk aan het genieten bent van de zon - net een spaghetti vongole hebt besteld bij een hippe strandtent - of gewoon behoefte hebt aan een stoot heerlijk gezonde feelgood muziekvitaminen. Enjoy!","external_urls":{"spotify":"https://open.spotify.com/playlist/22lTgkVV4gEHoffi975t3b"},"href":"https://api.spotify.com/v1/playlists/22lTgkVV4gEHoffi975t3b","id":"22lTgkVV4gEHoffi975t3b","images":[{"height":null,"url":"https://i.scdn.co/image/ab67706c0000bebb309c0922e6d50ef8a9f629d4","width":null}],"name":"Maximaal chillen","owner":{"display_name":"diederikdijkstra.nl","external_urls":{"spotify":"https://open.spotify.com/user/diederikdijkstra.nl"},"href":"https://api.spotify.com/v1/users/diederikdijkstra.nl","id":"diederikdijkstra.nl","type":"user","uri":"spotify:user:diederikdijkstra.nl"},"primary_color":null,"public":true,"snapshot_id":"MTY3LDIwMzgyMGJiNTQ0MGJmMTI5YzU5ZDdkNWQ5NzE1OTVjOTllOGFjZWI=","tracks":{"href":"https://api.spotify.com/v1/playlists/22lTgkVV4gEHoffi975t3b/tracks","total":127},"type":"playlist","uri":"spotify:playlist:22lTgkVV4gEHoffi975t3b"},{"collaborative":false,"description":"In deze lijst alleen songs waar ik kippenvel van krijg. Soms een klein beetje, maar meestal van m&#x27;n onderrug tot aan de zachte donshaartjes in m&#x27;n nek. Alleen het allerbeste verdient een plekje in deze lijst!","external_urls":{"spotify":"https://open.spotify.com/playlist/5LafCYMx8lxJRkGOsGqfct"},"href":"https://api.spotify.com/v1/playlists/5LafCYMx8lxJRkGOsGqfct","id":"5LafCYMx8lxJRkGOsGqfct","images":[{"height":null,"url":"https://i.scdn.co/image/ab67706c0000bebb07ac590980217835316d85ab","width":null}],"name":"Allemachtig wat prachtig","owner":{"display_name":"diederikdijkstra.nl","external_urls":{"spotify":"https://open.spotify.com/user/diederikdijkstra.nl"},"href":"https://api.spotify.com/v1/users/diederikdijkstra.nl","id":"diederikdijkstra.nl","type":"user","uri":"spotify:user:diederikdijkstra.nl"},"primary_color":null,"public":true,"snapshot_id":"MTMzLDIwNDQxYzdjNDY1NmY1Y2U4ZDhjMzYyMzE0ZWYzNWY1YTU5MjRlMTE=","tracks":{"href":"https://api.spotify.com/v1/playlists/5LafCYMx8lxJRkGOsGqfct/tracks","total":36},"type":"playlist","uri":"spotify:playlist:5LafCYMx8lxJRkGOsGqfct"},{"collaborative":false,"description":"","external_urls":{"spotify":"https://open.spotify.com/playlist/4uAynxGpihKouRvwWb532O"},"href":"https://api.spotify.com/v1/playlists/4uAynxGpihKouRvwWb532O","id":"4uAynxGpihKouRvwWb532O","images":[{"height":null,"url":"https://i.scdn.co/image/ab67706c0000bebb154333fa34ae64c094fac967","width":null}],"name":"Even van het padje af","owner":{"display_name":"diederikdijkstra.nl","external_urls":{"spotify":"https://open.spotify.com/user/diederikdijkstra.nl"},"href":"https://api.spotify.com/v1/users/diederikdijkstra.nl","id":"diederikdijkstra.nl","type":"user","uri":"spotify:user:diederikdijkstra.nl"},"primary_color":null,"public":true,"snapshot_id":"ODIsZTc1MWQ2NDEzZTI5MzM0MDVmNDM2NjA0NjEyZDdiN2M3ZWMyMTRhZA==","tracks":{"href":"https://api.spotify.com/v1/playlists/4uAynxGpihKouRvwWb532O/tracks","total":57},"type":"playlist","uri":"spotify:playlist:4uAynxGpihKouRvwWb532O"},{"collaborative":false,"description":"Hardcore Power - Thunderdome - Digital Overdose - Ravers Religion - Shadowlands Rave - Hellraiser - Mystery Land - Rave 2 the City - Masters of Hardcore -  Kardinge - Sporthallen Zuid - Thialf - FEC Expo Leeuwarden - Hemkade","external_urls":{"spotify":"https://open.spotify.com/playlist/6shec2t78MkOIYkUDcazXd"},"href":"https://api.spotify.com/v1/playlists/6shec2t78MkOIYkUDcazXd","id":"6shec2t78MkOIYkUDcazXd","images":[{"height":null,"url":"https://i.scdn.co/image/ab67706c0000bebb3373dc38f403f8030b50d4bd","width":null}],"name":"Welcome to the Thunderdome","owner":{"display_name":"diederikdijkstra.nl","external_urls":{"spotify":"https://open.spotify.com/user/diederikdijkstra.nl"},"href":"https://api.spotify.com/v1/users/diederikdijkstra.nl","id":"diederikdijkstra.nl","type":"user","uri":"spotify:user:diederikdijkstra.nl"},"primary_color":null,"public":true,"snapshot_id":"NDA0LDU2Y2M0YTUyNTU1ZjlkNmU0ZTczZmRkNDRmZTM2ZDg1N2IzYzIyZTQ=","tracks":{"href":"https://api.spotify.com/v1/playlists/6shec2t78MkOIYkUDcazXd/tracks","total":349},"type":"playlist","uri":"spotify:playlist:6shec2t78MkOIYkUDcazXd"},{"collaborative":false,"description":"","external_urls":{"spotify":"https://open.spotify.com/playlist/2ib0sWQjVUM69bX7jAIhqK"},"href":"https://api.spotify.com/v1/playlists/2ib0sWQjVUM69bX7jAIhqK","id":"2ib0sWQjVUM69bX7jAIhqK","images":[{"height":640,"url":"https://mosaic.scdn.co/640/ab67616d0000b273927bc51ca880907351c74fd7ab67616d0000b2739ba19cdbb5a0ea9356d47aa9ab67616d0000b273b5a24635844c9287489c1bf9ab67616d0000b273e0aaf7b46564fce9139ab598","width":640},{"height":300,"url":"https://mosaic.scdn.co/300/ab67616d0000b273927bc51ca880907351c74fd7ab67616d0000b2739ba19cdbb5a0ea9356d47aa9ab67616d0000b273b5a24635844c9287489c1bf9ab67616d0000b273e0aaf7b46564fce9139ab598","width":300},{"height":60,"url":"https://mosaic.scdn.co/60/ab67616d0000b273927bc51ca880907351c74fd7ab67616d0000b2739ba19cdbb5a0ea9356d47aa9ab67616d0000b273b5a24635844c9287489c1bf9ab67616d0000b273e0aaf7b46564fce9139ab598","width":60}],"name":"Fijne deuntjes No.26","owner":{"display_name":"diederikdijkstra.nl","external_urls":{"spotify":"https://open.spotify.com/user/diederikdijkstra.nl"},"href":"https://api.spotify.com/v1/users/diederikdijkstra.nl","id":"diederikdijkstra.nl","type":"user","uri":"spotify:user:diederikdijkstra.nl"},"primary_color":null,"public":true,"snapshot_id":"MzIsMWU2MDcyMmI1ZmZiMTE1YThlMWFlMjQxNGEwZWE3NWRmZDllOWM0ZA==","tracks":{"href":"https://api.spotify.com/v1/playlists/2ib0sWQjVUM69bX7jAIhqK/tracks","total":25},"type":"playlist","uri":"spotify:playlist:2ib0sWQjVUM69bX7jAIhqK"},{"collaborative":false,"description":"","external_urls":{"spotify":"https://open.spotify.com/playlist/7lQTiY84PNWlApNAInaiP4"},"href":"https://api.spotify.com/v1/playlists/7lQTiY84PNWlApNAInaiP4","id":"7lQTiY84PNWlApNAInaiP4","images":[{"height":640,"url":"https://mosaic.scdn.co/640/ab67616d0000b2731cbbe8f0e654affbc942a1b5ab67616d0000b2738711e1b7d05c4db19ddab2bdab67616d0000b27389b19940a8af9526b88c581dab67616d0000b273a90c7142fe15a18f3c806a39","width":640},{"height":300,"url":"https://mosaic.scdn.co/300/ab67616d0000b2731cbbe8f0e654affbc942a1b5ab67616d0000b2738711e1b7d05c4db19ddab2bdab67616d0000b27389b19940a8af9526b88c581dab67616d0000b273a90c7142fe15a18f3c806a39","width":300},{"height":60,"url":"https://mosaic.scdn.co/60/ab67616d0000b2731cbbe8f0e654affbc942a1b5ab67616d0000b2738711e1b7d05c4db19ddab2bdab67616d0000b27389b19940a8af9526b88c581dab67616d0000b273a90c7142fe15a18f3c806a39","width":60}],"name":"Fijne deuntjes No.24","owner":{"display_name":"diederikdijkstra.nl","external_urls":{"spotify":"https://open.spotify.com/user/diederikdijkstra.nl"},"href":"https://api.spotify.com/v1/users/diederikdijkstra.nl","id":"diederikdijkstra.nl","type":"user","uri":"spotify:user:diederikdijkstra.nl"},"primary_color":null,"public":true,"snapshot_id":"NjcsNjc3YzdkNGE2NzQ1ZjhiN2JiMmQyYjEwYWIyNWYyYzU3NDJiNmU3OQ==","tracks":{"href":"https://api.spotify.com/v1/playlists/7lQTiY84PNWlApNAInaiP4/tracks","total":25},"type":"playlist","uri":"spotify:playlist:7lQTiY84PNWlApNAInaiP4"},{"collaborative":false,"description":"","external_urls":{"spotify":"https://open.spotify.com/playlist/0mlvt6Sn98erLngGlQjA7Y"},"href":"https://api.spotify.com/v1/playlists/0mlvt6Sn98erLngGlQjA7Y","id":"0mlvt6Sn98erLngGlQjA7Y","images":[{"height":640,"url":"https://mosaic.scdn.co/640/ab67616d0000b2731e8bf542b72627116901af69ab67616d0000b2732706f963ca5e24dce8ab63bfab67616d0000b2737a80995d981ae682a1a6c6a2ab67616d0000b273e517e3324e0050aa2064e0a8","width":640},{"height":300,"url":"https://mosaic.scdn.co/300/ab67616d0000b2731e8bf542b72627116901af69ab67616d0000b2732706f963ca5e24dce8ab63bfab67616d0000b2737a80995d981ae682a1a6c6a2ab67616d0000b273e517e3324e0050aa2064e0a8","width":300},{"height":60,"url":"https://mosaic.scdn.co/60/ab67616d0000b2731e8bf542b72627116901af69ab67616d0000b2732706f963ca5e24dce8ab63bfab67616d0000b2737a80995d981ae682a1a6c6a2ab67616d0000b273e517e3324e0050aa2064e0a8","width":60}],"name":"Fijne deuntjes No.23","owner":{"display_name":"diederikdijkstra.nl","external_urls":{"spotify":"https://open.spotify.com/user/diederikdijkstra.nl"},"href":"https://api.spotify.com/v1/users/diederikdijkstra.nl","id":"diederikdijkstra.nl","type":"user","uri":"spotify:user:diederikdijkstra.nl"},"primary_color":null,"public":true,"snapshot_id":"MTAwLDE0YjA0MmIxOTgyNjc3MjIxY2U0OTNhNzcxZjUzYjE0ZmEyNzY1MTc=","tracks":{"href":"https://api.spotify.com/v1/playlists/0mlvt6Sn98erLngGlQjA7Y/tracks","total":25},"type":"playlist","uri":"spotify:playlist:0mlvt6Sn98erLngGlQjA7Y"},{"collaborative":false,"description":"","external_urls":{"spotify":"https://open.spotify.com/playlist/7EEKz0YRtL1uN2Bi4wDq75"},"href":"https://api.spotify.com/v1/playlists/7EEKz0YRtL1uN2Bi4wDq75","id":"7EEKz0YRtL1uN2Bi4wDq75","images":[{"height":640,"url":"https://mosaic.scdn.co/640/ab67616d0000b27336e728713c7959cb5121d37bab67616d0000b27347d1abf4ee582bd7e19d8ac2ab67616d0000b2738541110c85ba47ce0180059eab67616d0000b273ad40023322d8ec5a69cf5570","width":640},{"height":300,"url":"https://mosaic.scdn.co/300/ab67616d0000b27336e728713c7959cb5121d37bab67616d0000b27347d1abf4ee582bd7e19d8ac2ab67616d0000b2738541110c85ba47ce0180059eab67616d0000b273ad40023322d8ec5a69cf5570","width":300},{"height":60,"url":"https://mosaic.scdn.co/60/ab67616d0000b27336e728713c7959cb5121d37bab67616d0000b27347d1abf4ee582bd7e19d8ac2ab67616d0000b2738541110c85ba47ce0180059eab67616d0000b273ad40023322d8ec5a69cf5570","width":60}],"name":"Fijne deuntjes No.22","owner":{"display_name":"diederikdijkstra.nl","external_urls":{"spotify":"https://open.spotify.com/user/diederikdijkstra.nl"},"href":"https://api.spotify.com/v1/users/diederikdijkstra.nl","id":"diederikdijkstra.nl","type":"user","uri":"spotify:user:diederikdijkstra.nl"},"primary_color":null,"public":true,"snapshot_id":"OTYsMjIzMzAzNDY4M2QzNzQ4NWZmYTMwNjYyNWM2ODdmZWNiMWU0Yzc1NA==","tracks":{"href":"https://api.spotify.com/v1/playlists/7EEKz0YRtL1uN2Bi4wDq75/tracks","total":25},"type":"playlist","uri":"spotify:playlist:7EEKz0YRtL1uN2Bi4wDq75"},{"collaborative":false,"description":"","external_urls":{"spotify":"https://open.spotify.com/playlist/01NsIlPTwRA0hVZneevonL"},"href":"https://api.spotify.com/v1/playlists/01NsIlPTwRA0hVZneevonL","id":"01NsIlPTwRA0hVZneevonL","images":[{"height":640,"url":"https://mosaic.scdn.co/640/ab67616d0000b2738866595fd60a65192d794ddcab67616d0000b273c43b3a9459cadcf6f68867cdab67616d0000b273c9e431043333280498ee4ae6ab67616d0000b273efb39de70e48d5f03db807df","width":640},{"height":300,"url":"https://mosaic.scdn.co/300/ab67616d0000b2738866595fd60a65192d794ddcab67616d0000b273c43b3a9459cadcf6f68867cdab67616d0000b273c9e431043333280498ee4ae6ab67616d0000b273efb39de70e48d5f03db807df","width":300},{"height":60,"url":"https://mosaic.scdn.co/60/ab67616d0000b2738866595fd60a65192d794ddcab67616d0000b273c43b3a9459cadcf6f68867cdab67616d0000b273c9e431043333280498ee4ae6ab67616d0000b273efb39de70e48d5f03db807df","width":60}],"name":"Fijne deuntjes No.21","owner":{"display_name":"diederikdijkstra.nl","external_urls":{"spotify":"https://open.spotify.com/user/diederikdijkstra.nl"},"href":"https://api.spotify.com/v1/users/diederikdijkstra.nl","id":"diederikdijkstra.nl","type":"user","uri":"spotify:user:diederikdijkstra.nl"},"primary_color":null,"public":true,"snapshot_id":"NDcsY2M2Yjc2OGEwMGM5ZDk4YTJlOWY5NjFmM2UwOGQ4OGUyNjJjMDQwZA==","tracks":{"href":"https://api.spotify.com/v1/playlists/01NsIlPTwRA0hVZneevonL/tracks","total":25},"type":"playlist","uri":"spotify:playlist:01NsIlPTwRA0hVZneevonL"},{"collaborative":false,"description":"","external_urls":{"spotify":"https://open.spotify.com/playlist/2qGaJqW9CjS3VwV9QzyfYS"},"href":"https://api.spotify.com/v1/playlists/2qGaJqW9CjS3VwV9QzyfYS","id":"2qGaJqW9CjS3VwV9QzyfYS","images":[{"height":640,"url":"https://mosaic.scdn.co/640/ab67616d0000b27311e508c4571db1a80d23c829ab67616d0000b2732907f903da986bb6e97b786fab67616d0000b2736ad4f42ccd29771b7a4dfc48ab67616d0000b273cbf0db78d349e57cad6291d2","width":640},{"height":300,"url":"https://mosaic.scdn.co/300/ab67616d0000b27311e508c4571db1a80d23c829ab67616d0000b2732907f903da986bb6e97b786fab67616d0000b2736ad4f42ccd29771b7a4dfc48ab67616d0000b273cbf0db78d349e57cad6291d2","width":300},{"height":60,"url":"https://mosaic.scdn.co/60/ab67616d0000b27311e508c4571db1a80d23c829ab67616d0000b2732907f903da986bb6e97b786fab67616d0000b2736ad4f42ccd29771b7a4dfc48ab67616d0000b273cbf0db78d349e57cad6291d2","width":60}],"name":"Fijne deuntjes No.20","owner":{"display_name":"diederikdijkstra.nl","external_urls":{"spotify":"https://open.spotify.com/user/diederikdijkstra.nl"},"href":"https://api.spotify.com/v1/users/diederikdijkstra.nl","id":"diederikdijkstra.nl","type":"user","uri":"spotify:user:diederikdijkstra.nl"},"primary_color":null,"public":true,"snapshot_id":"NTcsNjllNWQ0Yjk4ZmQyZDJlODZiZmYyOTFiNTdiMzBiYzc3MzE2ODkxOQ==","tracks":{"href":"https://api.spotify.com/v1/playlists/2qGaJqW9CjS3VwV9QzyfYS/tracks","total":25},"type":"playlist","uri":"spotify:playlist:2qGaJqW9CjS3VwV9QzyfYS"},{"collaborative":false,"description":"","external_urls":{"spotify":"https://open.spotify.com/playlist/2ZXToCBuIub4yAQfOoJqKS"},"href":"https://api.spotify.com/v1/playlists/2ZXToCBuIub4yAQfOoJqKS","id":"2ZXToCBuIub4yAQfOoJqKS","images":[{"height":640,"url":"https://mosaic.scdn.co/640/ab67616d0000b2737a196f87865e68af1533c0beab67616d0000b273aeb51f9442ac2383f4e01b19ab67616d0000b273dd5e5dae4671661784941506ab67616d0000b273fac420befcdeaa977369fa59","width":640},{"height":300,"url":"https://mosaic.scdn.co/300/ab67616d0000b2737a196f87865e68af1533c0beab67616d0000b273aeb51f9442ac2383f4e01b19ab67616d0000b273dd5e5dae4671661784941506ab67616d0000b273fac420befcdeaa977369fa59","width":300},{"height":60,"url":"https://mosaic.scdn.co/60/ab67616d0000b2737a196f87865e68af1533c0beab67616d0000b273aeb51f9442ac2383f4e01b19ab67616d0000b273dd5e5dae4671661784941506ab67616d0000b273fac420befcdeaa977369fa59","width":60}],"name":"Fijne deuntjes No.19","owner":{"display_name":"diederikdijkstra.nl","external_urls":{"spotify":"https://open.spotify.com/user/diederikdijkstra.nl"},"href":"https://api.spotify.com/v1/users/diederikdijkstra.nl","id":"diederikdijkstra.nl","type":"user","uri":"spotify:user:diederikdijkstra.nl"},"primary_color":null,"public":true,"snapshot_id":"NzgsZmVkYTZiYjJhNTRhM2RiNzEyMTVlYmRhN2FjY2I1NjlkMDgzOTIxZQ==","tracks":{"href":"https://api.spotify.com/v1/playlists/2ZXToCBuIub4yAQfOoJqKS/tracks","total":25},"type":"playlist","uri":"spotify:playlist:2ZXToCBuIub4yAQfOoJqKS"},{"collaborative":false,"description":"","external_urls":{"spotify":"https://open.spotify.com/playlist/3A8IFI2PbAMI2caWqdmMcq"},"href":"https://api.spotify.com/v1/playlists/3A8IFI2PbAMI2caWqdmMcq","id":"3A8IFI2PbAMI2caWqdmMcq","images":[{"height":640,"url":"https://mosaic.scdn.co/640/ab67616d0000b2730002e763ba5a73949a3a8728ab67616d0000b2737995457a614405dab23b98e4ab67616d0000b27382ad6906854d5c042598e2c6ab67616d0000b273955df57940953845a9d2ab32","width":640},{"height":300,"url":"https://mosaic.scdn.co/300/ab67616d0000b2730002e763ba5a73949a3a8728ab67616d0000b2737995457a614405dab23b98e4ab67616d0000b27382ad6906854d5c042598e2c6ab67616d0000b273955df57940953845a9d2ab32","width":300},{"height":60,"url":"https://mosaic.scdn.co/60/ab67616d0000b2730002e763ba5a73949a3a8728ab67616d0000b2737995457a614405dab23b98e4ab67616d0000b27382ad6906854d5c042598e2c6ab67616d0000b273955df57940953845a9d2ab32","width":60}],"name":"Fijne deuntjes No.18","owner":{"display_name":"diederikdijkstra.nl","external_urls":{"spotify":"https://open.spotify.com/user/diederikdijkstra.nl"},"href":"https://api.spotify.com/v1/users/diederikdijkstra.nl","id":"diederikdijkstra.nl","type":"user","uri":"spotify:user:diederikdijkstra.nl"},"primary_color":null,"public":true,"snapshot_id":"NDEsMTUxZmFlYmJiYzg4N2M2NjhkOWU5YzNiZWY3YTg3Y2M4YTdmOGFkZA==","tracks":{"href":"https://api.spotify.com/v1/playlists/3A8IFI2PbAMI2caWqdmMcq/tracks","total":25},"type":"playlist","uri":"spotify:playlist:3A8IFI2PbAMI2caWqdmMcq"},{"collaborative":false,"description":"","external_urls":{"spotify":"https://open.spotify.com/playlist/41IB9v5kLiIqUs8eYKrJGb"},"href":"https://api.spotify.com/v1/playlists/41IB9v5kLiIqUs8eYKrJGb","id":"41IB9v5kLiIqUs8eYKrJGb","images":[{"height":640,"url":"https://mosaic.scdn.co/640/ab67616d0000b273193c03753b21fda49fedd91dab67616d0000b2738b23ebfa9e550598a5e0b4baab67616d0000b273d8af1b2a0ba2311359aa3ed6ab67616d0000b273fd84083347c44bb589128210","width":640},{"height":300,"url":"https://mosaic.scdn.co/300/ab67616d0000b273193c03753b21fda49fedd91dab67616d0000b2738b23ebfa9e550598a5e0b4baab67616d0000b273d8af1b2a0ba2311359aa3ed6ab67616d0000b273fd84083347c44bb589128210","width":300},{"height":60,"url":"https://mosaic.scdn.co/60/ab67616d0000b273193c03753b21fda49fedd91dab67616d0000b2738b23ebfa9e550598a5e0b4baab67616d0000b273d8af1b2a0ba2311359aa3ed6ab67616d0000b273fd84083347c44bb589128210","width":60}],"name":"Fijne deuntjes No.17","owner":{"display_name":"diederikdijkstra.nl","external_urls":{"spotify":"https://open.spotify.com/user/diederikdijkstra.nl"},"href":"https://api.spotify.com/v1/users/diederikdijkstra.nl","id":"diederikdijkstra.nl","type":"user","uri":"spotify:user:diederikdijkstra.nl"},"primary_color":null,"public":true,"snapshot_id":"MzMsN2I0Nzk5ZDg3ZTgxN2ZmYTMxZjM5ZDRkODA2ZjNiZGFmZGEyYzExZQ==","tracks":{"href":"https://api.spotify.com/v1/playlists/41IB9v5kLiIqUs8eYKrJGb/tracks","total":25},"type":"playlist","uri":"spotify:playlist:41IB9v5kLiIqUs8eYKrJGb"},{"collaborative":false,"description":"","external_urls":{"spotify":"https://open.spotify.com/playlist/5mQcWoqY7ImICYdU3K0JYW"},"href":"https://api.spotify.com/v1/playlists/5mQcWoqY7ImICYdU3K0JYW","id":"5mQcWoqY7ImICYdU3K0JYW","images":[{"height":640,"url":"https://mosaic.scdn.co/640/ab67616d0000b27312bcedb113f2da762e489280ab67616d0000b2734fc262702a39bd8c709394d5ab67616d0000b2738f27fd55ff80afa7cec2e795ab67616d0000b273d5f4c363bb4e42ca738a25d9","width":640},{"height":300,"url":"https://mosaic.scdn.co/300/ab67616d0000b27312bcedb113f2da762e489280ab67616d0000b2734fc262702a39bd8c709394d5ab67616d0000b2738f27fd55ff80afa7cec2e795ab67616d0000b273d5f4c363bb4e42ca738a25d9","width":300},{"height":60,"url":"https://mosaic.scdn.co/60/ab67616d0000b27312bcedb113f2da762e489280ab67616d0000b2734fc262702a39bd8c709394d5ab67616d0000b2738f27fd55ff80afa7cec2e795ab67616d0000b273d5f4c363bb4e42ca738a25d9","width":60}],"name":"Fijne deuntjes No.16","owner":{"display_name":"diederikdijkstra.nl","external_urls":{"spotify":"https://open.spotify.com/user/diederikdijkstra.nl"},"href":"https://api.spotify.com/v1/users/diederikdijkstra.nl","id":"diederikdijkstra.nl","type":"user","uri":"spotify:user:diederikdijkstra.nl"},"primary_color":null,"public":true,"snapshot_id":"NDYsMDJhOTgwMTJjNmVhNjkxZDk2ZGVjYzZjMjk2N2QwMDY3N2NiOTAwMg==","tracks":{"href":"https://api.spotify.com/v1/playlists/5mQcWoqY7ImICYdU3K0JYW/tracks","total":25},"type":"playlist","uri":"spotify:playlist:5mQcWoqY7ImICYdU3K0JYW"},{"collaborative":false,"description":"","external_urls":{"spotify":"https://open.spotify.com/playlist/6OdpZm25caeT9pJ21zAI98"},"href":"https://api.spotify.com/v1/playlists/6OdpZm25caeT9pJ21zAI98","id":"6OdpZm25caeT9pJ21zAI98","images":[{"height":640,"url":"https://mosaic.scdn.co/640/ab67616d0000b273237ff4699c806a63e384a608ab67616d0000b273ad0886efb43e023b19d9b77bab67616d0000b273c828c300386f6c77b7419119ab67616d0000b273e1e98173b2c6daccf63a641a","width":640},{"height":300,"url":"https://mosaic.scdn.co/300/ab67616d0000b273237ff4699c806a63e384a608ab67616d0000b273ad0886efb43e023b19d9b77bab67616d0000b273c828c300386f6c77b7419119ab67616d0000b273e1e98173b2c6daccf63a641a","width":300},{"height":60,"url":"https://mosaic.scdn.co/60/ab67616d0000b273237ff4699c806a63e384a608ab67616d0000b273ad0886efb43e023b19d9b77bab67616d0000b273c828c300386f6c77b7419119ab67616d0000b273e1e98173b2c6daccf63a641a","width":60}],"name":"Fijne deuntjes No.15","owner":{"display_name":"diederikdijkstra.nl","external_urls":{"spotify":"https://open.spotify.com/user/diederikdijkstra.nl"},"href":"https://api.spotify.com/v1/users/diederikdijkstra.nl","id":"diederikdijkstra.nl","type":"user","uri":"spotify:user:diederikdijkstra.nl"},"primary_color":null,"public":true,"snapshot_id":"NDksNzIzYTRiMDI2OTczOGE0ZTEzYjRlNjViMTEwNzkxOGRkZDY3M2RiZg==","tracks":{"href":"https://api.spotify.com/v1/playlists/6OdpZm25caeT9pJ21zAI98/tracks","total":25},"type":"playlist","uri":"spotify:playlist:6OdpZm25caeT9pJ21zAI98"},{"collaborative":false,"description":"","external_urls":{"spotify":"https://open.spotify.com/playlist/3p27LtuevKyfFbSyp4sA1M"},"href":"https://api.spotify.com/v1/playlists/3p27LtuevKyfFbSyp4sA1M","id":"3p27LtuevKyfFbSyp4sA1M","images":[{"height":640,"url":"https://mosaic.scdn.co/640/ab67616d0000b27341696a0cb55140b7037cbd1fab67616d0000b27373296963091fc8a8932d3336ab67616d0000b273ac32c0bf2321ef71a37788c4ab67616d0000b273f2377bd1a333a478f9bbde6e","width":640},{"height":300,"url":"https://mosaic.scdn.co/300/ab67616d0000b27341696a0cb55140b7037cbd1fab67616d0000b27373296963091fc8a8932d3336ab67616d0000b273ac32c0bf2321ef71a37788c4ab67616d0000b273f2377bd1a333a478f9bbde6e","width":300},{"height":60,"url":"https://mosaic.scdn.co/60/ab67616d0000b27341696a0cb55140b7037cbd1fab67616d0000b27373296963091fc8a8932d3336ab67616d0000b273ac32c0bf2321ef71a37788c4ab67616d0000b273f2377bd1a333a478f9bbde6e","width":60}],"name":"Fijne deuntjes No.14","owner":{"display_name":"diederikdijkstra.nl","external_urls":{"spotify":"https://open.spotify.com/user/diederikdijkstra.nl"},"href":"https://api.spotify.com/v1/users/diederikdijkstra.nl","id":"diederikdijkstra.nl","type":"user","uri":"spotify:user:diederikdijkstra.nl"},"primary_color":null,"public":true,"snapshot_id":"NTYsNGZhMTE3YjYyZDc3YzhmNmIyM2MyOTdmYjE5MmQ0ODljNTlhZDNhOQ==","tracks":{"href":"https://api.spotify.com/v1/playlists/3p27LtuevKyfFbSyp4sA1M/tracks","total":25},"type":"playlist","uri":"spotify:playlist:3p27LtuevKyfFbSyp4sA1M"},{"collaborative":false,"description":"","external_urls":{"spotify":"https://open.spotify.com/playlist/4SmtDRbCSEdr6CCSnQwABB"},"href":"https://api.spotify.com/v1/playlists/4SmtDRbCSEdr6CCSnQwABB","id":"4SmtDRbCSEdr6CCSnQwABB","images":[{"height":640,"url":"https://mosaic.scdn.co/640/ab67616d0000b2732623840438272a7b763b4823ab67616d0000b273ad985d0332c864fdaefe25a2ab67616d0000b273d104b770102d0e2203604e0eab67616d0000b273f035b252f8de6014648fdcb3","width":640},{"height":300,"url":"https://mosaic.scdn.co/300/ab67616d0000b2732623840438272a7b763b4823ab67616d0000b273ad985d0332c864fdaefe25a2ab67616d0000b273d104b770102d0e2203604e0eab67616d0000b273f035b252f8de6014648fdcb3","width":300},{"height":60,"url":"https://mosaic.scdn.co/60/ab67616d0000b2732623840438272a7b763b4823ab67616d0000b273ad985d0332c864fdaefe25a2ab67616d0000b273d104b770102d0e2203604e0eab67616d0000b273f035b252f8de6014648fdcb3","width":60}],"name":"Fijne deuntjes No.13","owner":{"display_name":"diederikdijkstra.nl","external_urls":{"spotify":"https://open.spotify.com/user/diederikdijkstra.nl"},"href":"https://api.spotify.com/v1/users/diederikdijkstra.nl","id":"diederikdijkstra.nl","type":"user","uri":"spotify:user:diederikdijkstra.nl"},"primary_color":null,"public":true,"snapshot_id":"MzAsY2Y4Y2Q2YjFjZDE5YjczOTYxNjM5YzcwNmIwMWI5Mzg1N2RlZTE4Mg==","tracks":{"href":"https://api.spotify.com/v1/playlists/4SmtDRbCSEdr6CCSnQwABB/tracks","total":25},"type":"playlist","uri":"spotify:playlist:4SmtDRbCSEdr6CCSnQwABB"},{"collaborative":false,"description":"","external_urls":{"spotify":"https://open.spotify.com/playlist/1n7LzpIT0BtO0v6CcPiRL3"},"href":"https://api.spotify.com/v1/playlists/1n7LzpIT0BtO0v6CcPiRL3","id":"1n7LzpIT0BtO0v6CcPiRL3","images":[{"height":640,"url":"https://mosaic.scdn.co/640/ab67616d0000b27316f9b1590111d6ba9303f392ab67616d0000b27368b74ac5084901305e5e5c9dab67616d0000b27388dd18e5f3b5555833352f68ab67616d0000b273f035b252f8de6014648fdcb3","width":640},{"height":300,"url":"https://mosaic.scdn.co/300/ab67616d0000b27316f9b1590111d6ba9303f392ab67616d0000b27368b74ac5084901305e5e5c9dab67616d0000b27388dd18e5f3b5555833352f68ab67616d0000b273f035b252f8de6014648fdcb3","width":300},{"height":60,"url":"https://mosaic.scdn.co/60/ab67616d0000b27316f9b1590111d6ba9303f392ab67616d0000b27368b74ac5084901305e5e5c9dab67616d0000b27388dd18e5f3b5555833352f68ab67616d0000b273f035b252f8de6014648fdcb3","width":60}],"name":"Fijne deuntjes No.12","owner":{"display_name":"diederikdijkstra.nl","external_urls":{"spotify":"https://open.spotify.com/user/diederikdijkstra.nl"},"href":"https://api.spotify.com/v1/users/diederikdijkstra.nl","id":"diederikdijkstra.nl","type":"user","uri":"spotify:user:diederikdijkstra.nl"},"primary_color":null,"public":true,"snapshot_id":"MzksY2ViYTc5NjA0ZGI2MTYzMGNlY2ViMDUxYWFmNzdiNzg5MDc0MjY1NA==","tracks":{"href":"https://api.spotify.com/v1/playlists/1n7LzpIT0BtO0v6CcPiRL3/tracks","total":26},"type":"playlist","uri":"spotify:playlist:1n7LzpIT0BtO0v6CcPiRL3"}],"limit":20,"next":"https://api.spotify.com/v1/users/diederikdijkstra.nl/playlists?offset=20&limit=20","offset":0,"previous":null,"total":31}